{
  "id": "kompendien-vorlage-v10",
  "title": "Vorlage für eigene Kompendien (V10)",
  "description": "Vorlage zur Erstellung einer eigenen Kompendien-Sammlung in Foundry VTT Version 10",
  "authors": [
    {
      "name": "KarstenW",
      "discord": "KarstenW#7984",
      "flags": {}
    }
  ],
  "flags": {},
  "version": "1.0",
  "compatibility": {
    "minimum": "10",
    "verified": "10",
    "maximum": "10"
  },
  "scripts": [],
  "esmodules": [],
  "styles": [],
  "languages": [],
  "packs": [
    {
      "label": "Actors GM",
      "name": "actor-gm",
      "system": "dnd5e",
      "path": "packs/actor-gm.db",
      "module": "kompendien-vorlage-v10",
      "type": "Actor",
      "private": false
    },
    {
      "label": "Actors Spieler",
      "name": "actor-player",
      "system": "dnd5e",
      "path": "packs/actor-player.db",
      "module": "kompendien-vorlage-v10",
      "type": "Actor",
      "private": false
    },
    {
      "label": "Kartendecks",
      "name": "cards",
      "path": "packs/cards.db",
      "module": "kompendien-vorlage-v10",
      "type": "Cards",
      "private": false
    },
    {
      "label": "Items GM",
      "name": "item-gm",
      "system": "dnd5e",
      "path": "packs/item-gm.db",
      "module": "kompendien-vorlage-v10",
      "type": "Item",
      "private": false
    },
    {
      "label": "Items Spieler",
      "name": "item-player",
      "system": "dnd5e",
      "path": "packs/item-player.db",
      "module": "kompendien-vorlage-v10",
      "type": "Item",
      "private": false
    },
    {
      "label": "Journals GM",
      "name": "journal-gm",
      "path": "packs/journal-gm.db",
      "module": "kompendien-vorlage-v10",
      "type": "JournalEntry",
      "private": false
    },
    {
      "label": "Journals Spieler",
      "name": "journal-player",
      "path": "packs/journal-player.db",
      "module": "kompendien-vorlage-v10",
      "type": "JournalEntry",
      "private": false
    },
    {
      "label": "Makros",
      "name": "macro",
      "path": "packs/macro.db",
      "module": "kompendien-vorlage-v10",
      "type": "Macro",
      "private": false
    },
    {
      "label": "Playlists",
      "name": "playlist",
      "path": "packs/playlist.db",
      "module": "kompendien-vorlage-v10",
      "type": "Playlist",
      "private": false
    },
    {
      "label": "Tables",
      "name": "rolltable",
      "path": "packs/rolltable.db",
      "module": "kompendien-vorlage-v10",
      "type": "RollTable",
      "private": false
    },
    {
      "label": "Scenes",
      "name": "scene",
      "path": "packs/scene.db",
      "module": "kompendien-vorlage-v10",
      "type": "Scene",
      "private": false
    }
  ],
  "socket": false,
  "url": "https://gitlab.com/KarstenW76/kompendien-vorlage-v10",
  "manifest": "https://gitlab.com/KarstenW76/kompendien-vorlage-v10/-/raw/master/module.json",
  "download": "https://gitlab.com/KarstenW76/kompendien-vorlage-v10/-/archive/master/kompendien-vorlage-v10-master.zip"
}
